mass,volume,density,area,bb_volume,Ibar
1.066,995.9,0.001,2069.301,7176.96,153.72874402012403
108.079,13768.029,0.008,19215.837,40069.26,207734.78101312218
433.406,55210.971,0.008,57969.555,210407.28048000002,683995.5502520726
0.847,108.651,0.008,274.826,1081.5593375840003,14.168204014623734
238.488,30380.637,0.008,36346.664,67608.51299999999,1.3486211992376125e6
11.338,1444.311,0.008,1210.691,2211.0,1738.215640169539
11.338,1444.311,0.008,1210.691,2211.0,1738.215640169539
51.926,19232.035,0.003,5129.026,41817.6,12690.25031274084
3.615,460.535,0.008,1181.069,5533.789063138,445.2408284299633
51.926,19232.035,0.003,5129.026,41817.6,12690.25031274084
238.488,30380.637,0.008,36346.664,67608.51299999999,1.3486211992376125e6
141.036,17966.31,0.008,33980.334,860155.86,314358.9114140484
12.203,1554.512,0.008,2351.908,2936.6708,690.0074899607974
12.203,1554.512,0.008,2351.908,2936.6708,690.0074899607974
238.488,30380.637,0.008,36346.664,67608.51299999999,1.3486211992376125e6
365.628,46576.871,0.008,55492.134,103890.15,4.701074854900372e6
58.053,7395.244,0.008,2990.011,10164.0,42239.105195730794
51.926,19232.035,0.003,5129.026,41817.6,12690.250312740842
4.211,536.42,0.008,874.34,1860.2788,402.35623195745336
133.418,16995.941,0.008,30952.471,72293.1,90508.51809910338
1.066,995.9,0.001,2069.301,7176.96,153.72874402012403
20.543,2633.756,0.008,6078.184,53128.416,8520.54886629764
238.488,30380.637,0.008,36346.664,67608.51299999999,1.3486211992376125e6
11.338,1444.311,0.008,1210.691,2211.0,1738.215640169539
11.338,1444.311,0.008,1210.691,2211.0,1738.215640169539
11.338,1444.311,0.008,1210.691,2211.0,1738.215640169539
0.847,108.651,0.008,274.826,1081.5593375840003,14.168204014623734
46.103,5872.947,0.008,13143.977,47481.0,16394.45274151644
238.488,30380.637,0.008,36346.664,67608.51299999999,1.3486211992376125e6
58.053,7395.244,0.008,2990.011,10164.0,42239.105195730794
0.847,108.651,0.008,274.826,1081.5593375840003,14.168204014623734
9.266,3431.699,0.003,3369.751,5062.5,3063.7696834076805
141.036,17966.31,0.008,33980.334,860155.86,314358.9114140484
365.628,46576.871,0.008,55492.134,103890.15,4.701074854900372e6
58.053,7395.244,0.008,2990.011,10164.0,42239.105195730794
11.338,1444.311,0.008,1210.691,2211.0,1738.215640169539
505.292,64368.346,0.008,9976.414,67240.0,233826.99232060715
365.638,46578.15,0.008,74736.144,205264.512,584912.3744381818
108.079,13768.029,0.008,19215.837,40069.26,207734.78101312218
0.0,12245.003,0.0,18268.074,234646.24052758503,0.0
238.488,30380.637,0.008,36346.664,67608.51299999999,1.3486211992376125e6
249.853,31828.4,0.008,7087.864,45938.0,88826.10011105421
317.415,56671.244,0.006,46801.002,342330.694810351,390547.77702129295
0.847,108.651,0.008,274.826,1081.5593375840003,14.168204014623734
